(kicad_pcb (version 20171130) (host pcbnew 5.1.9-73d0e3b20d~88~ubuntu20.04.1)

  (general
    (thickness 1.6)
    (drawings 8)
    (tracks 101)
    (zones 0)
    (modules 18)
    (nets 17)
  )

  (page A4)
  (layers
    (0 F.Cu signal)
    (31 B.Cu signal hide)
    (32 B.Adhes user)
    (33 F.Adhes user)
    (34 B.Paste user)
    (35 F.Paste user)
    (36 B.SilkS user)
    (37 F.SilkS user hide)
    (38 B.Mask user)
    (39 F.Mask user)
    (40 Dwgs.User user)
    (41 Cmts.User user)
    (42 Eco1.User user)
    (43 Eco2.User user)
    (44 Edge.Cuts user)
    (45 Margin user)
    (46 B.CrtYd user)
    (47 F.CrtYd user)
    (48 B.Fab user)
    (49 F.Fab user)
  )

  (setup
    (last_trace_width 0.4)
    (trace_clearance 0.4)
    (zone_clearance 0.508)
    (zone_45_only no)
    (trace_min 0.2)
    (via_size 1.6)
    (via_drill 0.8)
    (via_min_size 0.4)
    (via_min_drill 0.3)
    (uvia_size 0.3)
    (uvia_drill 0.1)
    (uvias_allowed no)
    (uvia_min_size 0.2)
    (uvia_min_drill 0.1)
    (edge_width 0.05)
    (segment_width 0.2)
    (pcb_text_width 0.3)
    (pcb_text_size 1.5 1.5)
    (mod_edge_width 0.12)
    (mod_text_size 1 1)
    (mod_text_width 0.15)
    (pad_size 1.524 1.524)
    (pad_drill 0.762)
    (pad_to_mask_clearance 0)
    (aux_axis_origin 0 0)
    (visible_elements FFFFFF7F)
    (pcbplotparams
      (layerselection 0x01000_7fffffff)
      (usegerberextensions false)
      (usegerberattributes true)
      (usegerberadvancedattributes true)
      (creategerberjobfile true)
      (excludeedgelayer false)
      (linewidth 0.100000)
      (plotframeref false)
      (viasonmask false)
      (mode 1)
      (useauxorigin false)
      (hpglpennumber 1)
      (hpglpenspeed 20)
      (hpglpendiameter 15.000000)
      (psnegative false)
      (psa4output false)
      (plotreference false)
      (plotvalue false)
      (plotinvisibletext false)
      (padsonsilk true)
      (subtractmaskfromsilk false)
      (outputformat 1)
      (mirror false)
      (drillshape 0)
      (scaleselection 1)
      (outputdirectory "gerbers/"))
  )

  (net 0 "")
  (net 1 GND)
  (net 2 +5V)
  (net 3 "Net-(J1-Pad6)")
  (net 4 /RX)
  (net 5 /TX)
  (net 6 "Net-(J1-Pad2)")
  (net 7 /UPDI)
  (net 8 "Net-(U3-Pad5)")
  (net 9 "Net-(U3-Pad7)")
  (net 10 "Net-(D1-Pad2)")
  (net 11 "Net-(C1-Pad1)")
  (net 12 "Net-(C2-Pad1)")
  (net 13 "Net-(C2-Pad2)")
  (net 14 "Net-(C4-Pad1)")
  (net 15 /AUDIO)
  (net 16 "Net-(C5-Pad2)")

  (net_class Default "This is the default net class."
    (clearance 0.4)
    (trace_width 0.4)
    (via_dia 1.6)
    (via_drill 0.8)
    (uvia_dia 0.3)
    (uvia_drill 0.1)
    (add_net /AUDIO)
    (add_net /RX)
    (add_net /TX)
    (add_net /UPDI)
    (add_net "Net-(C1-Pad1)")
    (add_net "Net-(C2-Pad1)")
    (add_net "Net-(C2-Pad2)")
    (add_net "Net-(C4-Pad1)")
    (add_net "Net-(C5-Pad2)")
    (add_net "Net-(D1-Pad2)")
    (add_net "Net-(J1-Pad2)")
    (add_net "Net-(J1-Pad6)")
    (add_net "Net-(U3-Pad5)")
    (add_net "Net-(U3-Pad7)")
  )

  (net_class Power ""
    (clearance 0.4)
    (trace_width 0.6)
    (via_dia 1.6)
    (via_drill 0.8)
    (uvia_dia 0.3)
    (uvia_drill 0.1)
    (add_net +5V)
    (add_net GND)
  )

  (module fab:SOT-23-5 (layer F.Cu) (tedit 609198A5) (tstamp 6090726C)
    (at 131.75 105.05 90)
    (descr "5-pin SOT23 package")
    (tags "SOT-23-5 hand-soldering")
    (path /6091ECA2)
    (attr smd)
    (fp_text reference U2 (at 0 -2.9 90) (layer F.SilkS)
      (effects (font (size 1 1) (thickness 0.15)))
    )
    (fp_text value OPAMP_AD8605 (at 0 2.9 90) (layer F.Fab)
      (effects (font (size 1 1) (thickness 0.15)))
    )
    (fp_text user %R (at 0 0) (layer F.Fab)
      (effects (font (size 0.5 0.5) (thickness 0.075)))
    )
    (fp_line (start -0.9 1.61) (end 0.9 1.61) (layer F.SilkS) (width 0.12))
    (fp_line (start 0.9 -1.61) (end -1.55 -1.61) (layer F.SilkS) (width 0.12))
    (fp_line (start -0.9 -0.9) (end -0.25 -1.55) (layer F.Fab) (width 0.1))
    (fp_line (start 0.9 -1.55) (end -0.25 -1.55) (layer F.Fab) (width 0.1))
    (fp_line (start -0.9 -0.9) (end -0.9 1.55) (layer F.Fab) (width 0.1))
    (fp_line (start 0.9 1.55) (end -0.9 1.55) (layer F.Fab) (width 0.1))
    (fp_line (start 0.9 -1.55) (end 0.9 1.55) (layer F.Fab) (width 0.1))
    (fp_line (start -2.65 -1.8) (end 2.65 -1.8) (layer F.CrtYd) (width 0.05))
    (fp_line (start -2.65 -1.8) (end -2.65 1.8) (layer F.CrtYd) (width 0.05))
    (fp_line (start 2.65 1.8) (end 2.65 -1.8) (layer F.CrtYd) (width 0.05))
    (fp_line (start 2.65 1.8) (end -2.65 1.8) (layer F.CrtYd) (width 0.05))
    (pad 1 smd rect (at -1.5 -0.95 90) (size 2 0.5) (layers F.Cu F.Paste F.Mask)
      (net 15 /AUDIO))
    (pad 2 smd rect (at -1.5 0 90) (size 2 0.5) (layers F.Cu F.Paste F.Mask)
      (net 1 GND))
    (pad 3 smd rect (at -1.5 0.95 90) (size 2 0.5) (layers F.Cu F.Paste F.Mask)
      (net 12 "Net-(C2-Pad1)"))
    (pad 4 smd rect (at 1.5 0.95 90) (size 2 0.8) (layers F.Cu F.Paste F.Mask)
      (net 16 "Net-(C5-Pad2)"))
    (pad 5 smd rect (at 1.5 -0.95 90) (size 2 0.8) (layers F.Cu F.Paste F.Mask)
      (net 2 +5V))
    (model ${KISYS3DMOD}/TO_SOT_Packages_SMD.3dshapes\SOT-23-5.wrl
      (at (xyz 0 0 0))
      (scale (xyz 1 1 1))
      (rotate (xyz 0 0 0))
    )
  )

  (module fab:PinHeader_1x02_P2.54mm_Horizontal_SMD (layer F.Cu) (tedit 608518ED) (tstamp 609199E7)
    (at 161.6 99.2)
    (descr https://s3.amazonaws.com/catalogspreads-pdf/PAGE112-113%20.100%20MALE%20HDR.pdf)
    (tags "horizontal pin header SMD 2.54mm")
    (path /60920A28)
    (attr smd)
    (fp_text reference MK1 (at -1.524 -2.54 180) (layer F.SilkS)
      (effects (font (size 1 1) (thickness 0.15)) (justify left))
    )
    (fp_text value Mic_Electret (at 0 5.715) (layer F.Fab)
      (effects (font (size 1 1) (thickness 0.15)))
    )
    (fp_text user %R (at 2.6 1.2 90) (layer F.Fab)
      (effects (font (size 1 1) (thickness 0.15)))
    )
    (fp_line (start 6.4 -1.8) (end -1.8 -1.8) (layer F.CrtYd) (width 0.05))
    (fp_line (start 6.4 4.3) (end 6.4 -1.8) (layer F.CrtYd) (width 0.05))
    (fp_line (start -1.8 4.3) (end 6.4 4.3) (layer F.CrtYd) (width 0.05))
    (fp_line (start -1.8 -1.8) (end -1.8 4.3) (layer F.CrtYd) (width 0.05))
    (fp_line (start -1.27 -1.27) (end 0 -1.27) (layer F.SilkS) (width 0.12))
    (fp_line (start 3.81 3.81) (end 3.8 -1.27) (layer F.Fab) (width 0.1))
    (fp_line (start 3.8 -1.27) (end 6.34 -1.27) (layer F.Fab) (width 0.1))
    (fp_line (start 3.8 3.81) (end 6.35 3.81) (layer F.Fab) (width 0.1))
    (fp_line (start 6.34 -1.27) (end 6.35 3.81) (layer F.Fab) (width 0.1))
    (fp_line (start 3.81 0) (end -0.635 0) (layer F.Fab) (width 0.1))
    (fp_line (start 3.81 2.54) (end -0.635 2.54) (layer F.Fab) (width 0.1))
    (fp_line (start 3.81 -1.27) (end 6.35 -1.27) (layer F.SilkS) (width 0.12))
    (fp_line (start 6.35 -1.27) (end 6.35 3.81) (layer F.SilkS) (width 0.12))
    (fp_line (start 6.35 3.81) (end 3.81 3.81) (layer F.SilkS) (width 0.12))
    (fp_line (start 3.81 3.81) (end 3.81 -1.27) (layer F.SilkS) (width 0.12))
    (fp_line (start 3.81 -0.254) (end 1.27 -0.254) (layer F.SilkS) (width 0.12))
    (fp_line (start 3.81 0.254) (end 1.27 0.254) (layer F.SilkS) (width 0.12))
    (fp_line (start 3.81 2.286) (end 1.27 2.286) (layer F.SilkS) (width 0.12))
    (fp_line (start 3.81 2.794) (end 1.27 2.794) (layer F.SilkS) (width 0.12))
    (fp_line (start -0.635 -0.254) (end -0.635 0.254) (layer F.Fab) (width 0.1))
    (fp_line (start -0.635 2.286) (end -0.635 2.794) (layer F.Fab) (width 0.1))
    (pad 2 smd rect (at 0 2.54) (size 2.5 1.7) (layers F.Cu F.Paste F.Mask)
      (net 1 GND))
    (pad 1 smd rect (at 0 0) (size 2.5 1.7) (layers F.Cu F.Paste F.Mask)
      (net 13 "Net-(C2-Pad2)"))
    (model ${FAB}/fab.3dshapes/Header_SMD_01x02_P2.54mm_Horizontal_Male.step
      (at (xyz 0 0 0))
      (scale (xyz 1 1 1))
      (rotate (xyz 0 0 0))
    )
  )

  (module fab:R_1206 (layer F.Cu) (tedit 60020482) (tstamp 609190F3)
    (at 131.7 96.7)
    (descr "Resistor SMD 1206, hand soldering")
    (tags "resistor 1206")
    (path /6097CB9C)
    (attr smd)
    (fp_text reference R7 (at 0 -1.85) (layer F.SilkS)
      (effects (font (size 1 1) (thickness 0.15)))
    )
    (fp_text value 1M (at 0 1.9) (layer F.Fab)
      (effects (font (size 1 1) (thickness 0.15)))
    )
    (fp_text user %R (at 0 0) (layer F.Fab)
      (effects (font (size 0.7 0.7) (thickness 0.105)))
    )
    (fp_line (start -1.6 0.8) (end -1.6 -0.8) (layer F.Fab) (width 0.1))
    (fp_line (start 1.6 0.8) (end -1.6 0.8) (layer F.Fab) (width 0.1))
    (fp_line (start 1.6 -0.8) (end 1.6 0.8) (layer F.Fab) (width 0.1))
    (fp_line (start -1.6 -0.8) (end 1.6 -0.8) (layer F.Fab) (width 0.1))
    (fp_line (start 1 1.07) (end -1 1.07) (layer F.SilkS) (width 0.12))
    (fp_line (start -1 -1.07) (end 1 -1.07) (layer F.SilkS) (width 0.12))
    (fp_line (start -3.25 -1.11) (end 3.25 -1.11) (layer F.CrtYd) (width 0.05))
    (fp_line (start -3.25 -1.11) (end -3.25 1.1) (layer F.CrtYd) (width 0.05))
    (fp_line (start 3.25 1.1) (end 3.25 -1.11) (layer F.CrtYd) (width 0.05))
    (fp_line (start 3.25 1.1) (end -3.25 1.1) (layer F.CrtYd) (width 0.05))
    (pad 1 smd rect (at -2 0) (size 2 1.7) (layers F.Cu F.Paste F.Mask)
      (net 15 /AUDIO))
    (pad 2 smd rect (at 2 0) (size 2 1.7) (layers F.Cu F.Paste F.Mask)
      (net 16 "Net-(C5-Pad2)"))
    (model ${FAB}/fab.3dshapes/R_1206.step
      (at (xyz 0 0 0))
      (scale (xyz 1 1 1))
      (rotate (xyz 0 0 0))
    )
  )

  (module fab:R_1206 (layer F.Cu) (tedit 60020482) (tstamp 609190E2)
    (at 139.4 100.5 180)
    (descr "Resistor SMD 1206, hand soldering")
    (tags "resistor 1206")
    (path /6097D3E5)
    (attr smd)
    (fp_text reference R6 (at 0 -1.85) (layer F.SilkS)
      (effects (font (size 1 1) (thickness 0.15)))
    )
    (fp_text value 10K (at 0 1.9) (layer F.Fab)
      (effects (font (size 1 1) (thickness 0.15)))
    )
    (fp_text user %R (at 0 0) (layer F.Fab)
      (effects (font (size 0.7 0.7) (thickness 0.105)))
    )
    (fp_line (start -1.6 0.8) (end -1.6 -0.8) (layer F.Fab) (width 0.1))
    (fp_line (start 1.6 0.8) (end -1.6 0.8) (layer F.Fab) (width 0.1))
    (fp_line (start 1.6 -0.8) (end 1.6 0.8) (layer F.Fab) (width 0.1))
    (fp_line (start -1.6 -0.8) (end 1.6 -0.8) (layer F.Fab) (width 0.1))
    (fp_line (start 1 1.07) (end -1 1.07) (layer F.SilkS) (width 0.12))
    (fp_line (start -1 -1.07) (end 1 -1.07) (layer F.SilkS) (width 0.12))
    (fp_line (start -3.25 -1.11) (end 3.25 -1.11) (layer F.CrtYd) (width 0.05))
    (fp_line (start -3.25 -1.11) (end -3.25 1.1) (layer F.CrtYd) (width 0.05))
    (fp_line (start 3.25 1.1) (end 3.25 -1.11) (layer F.CrtYd) (width 0.05))
    (fp_line (start 3.25 1.1) (end -3.25 1.1) (layer F.CrtYd) (width 0.05))
    (pad 1 smd rect (at -2 0 180) (size 2 1.7) (layers F.Cu F.Paste F.Mask)
      (net 14 "Net-(C4-Pad1)"))
    (pad 2 smd rect (at 2 0 180) (size 2 1.7) (layers F.Cu F.Paste F.Mask)
      (net 16 "Net-(C5-Pad2)"))
    (model ${FAB}/fab.3dshapes/R_1206.step
      (at (xyz 0 0 0))
      (scale (xyz 1 1 1))
      (rotate (xyz 0 0 0))
    )
  )

  (module fab:R_1206 (layer F.Cu) (tedit 60020482) (tstamp 609190B1)
    (at 148.8 103.4 270)
    (descr "Resistor SMD 1206, hand soldering")
    (tags "resistor 1206")
    (path /60958D3E)
    (attr smd)
    (fp_text reference R4 (at 0 -1.85 90) (layer F.SilkS)
      (effects (font (size 1 1) (thickness 0.15)))
    )
    (fp_text value 1M (at 0 1.9 90) (layer F.Fab)
      (effects (font (size 1 1) (thickness 0.15)))
    )
    (fp_text user %R (at 0 0 90) (layer F.Fab)
      (effects (font (size 0.7 0.7) (thickness 0.105)))
    )
    (fp_line (start -1.6 0.8) (end -1.6 -0.8) (layer F.Fab) (width 0.1))
    (fp_line (start 1.6 0.8) (end -1.6 0.8) (layer F.Fab) (width 0.1))
    (fp_line (start 1.6 -0.8) (end 1.6 0.8) (layer F.Fab) (width 0.1))
    (fp_line (start -1.6 -0.8) (end 1.6 -0.8) (layer F.Fab) (width 0.1))
    (fp_line (start 1 1.07) (end -1 1.07) (layer F.SilkS) (width 0.12))
    (fp_line (start -1 -1.07) (end 1 -1.07) (layer F.SilkS) (width 0.12))
    (fp_line (start -3.25 -1.11) (end 3.25 -1.11) (layer F.CrtYd) (width 0.05))
    (fp_line (start -3.25 -1.11) (end -3.25 1.1) (layer F.CrtYd) (width 0.05))
    (fp_line (start 3.25 1.1) (end 3.25 -1.11) (layer F.CrtYd) (width 0.05))
    (fp_line (start 3.25 1.1) (end -3.25 1.1) (layer F.CrtYd) (width 0.05))
    (pad 1 smd rect (at -2 0 270) (size 2 1.7) (layers F.Cu F.Paste F.Mask)
      (net 12 "Net-(C2-Pad1)"))
    (pad 2 smd rect (at 2 0 270) (size 2 1.7) (layers F.Cu F.Paste F.Mask)
      (net 1 GND))
    (model ${FAB}/fab.3dshapes/R_1206.step
      (at (xyz 0 0 0))
      (scale (xyz 1 1 1))
      (rotate (xyz 0 0 0))
    )
  )

  (module fab:R_1206 (layer F.Cu) (tedit 60020482) (tstamp 609190A0)
    (at 145.2 100.2 90)
    (descr "Resistor SMD 1206, hand soldering")
    (tags "resistor 1206")
    (path /609588C9)
    (attr smd)
    (fp_text reference R3 (at 0 -1.85 90) (layer F.SilkS)
      (effects (font (size 1 1) (thickness 0.15)))
    )
    (fp_text value 1M (at 0 1.9 90) (layer F.Fab)
      (effects (font (size 1 1) (thickness 0.15)))
    )
    (fp_text user %R (at 0 0 90) (layer F.Fab)
      (effects (font (size 0.7 0.7) (thickness 0.105)))
    )
    (fp_line (start -1.6 0.8) (end -1.6 -0.8) (layer F.Fab) (width 0.1))
    (fp_line (start 1.6 0.8) (end -1.6 0.8) (layer F.Fab) (width 0.1))
    (fp_line (start 1.6 -0.8) (end 1.6 0.8) (layer F.Fab) (width 0.1))
    (fp_line (start -1.6 -0.8) (end 1.6 -0.8) (layer F.Fab) (width 0.1))
    (fp_line (start 1 1.07) (end -1 1.07) (layer F.SilkS) (width 0.12))
    (fp_line (start -1 -1.07) (end 1 -1.07) (layer F.SilkS) (width 0.12))
    (fp_line (start -3.25 -1.11) (end 3.25 -1.11) (layer F.CrtYd) (width 0.05))
    (fp_line (start -3.25 -1.11) (end -3.25 1.1) (layer F.CrtYd) (width 0.05))
    (fp_line (start 3.25 1.1) (end 3.25 -1.11) (layer F.CrtYd) (width 0.05))
    (fp_line (start 3.25 1.1) (end -3.25 1.1) (layer F.CrtYd) (width 0.05))
    (pad 1 smd rect (at -2 0 90) (size 2 1.7) (layers F.Cu F.Paste F.Mask)
      (net 2 +5V))
    (pad 2 smd rect (at 2 0 90) (size 2 1.7) (layers F.Cu F.Paste F.Mask)
      (net 12 "Net-(C2-Pad1)"))
    (model ${FAB}/fab.3dshapes/R_1206.step
      (at (xyz 0 0 0))
      (scale (xyz 1 1 1))
      (rotate (xyz 0 0 0))
    )
  )

  (module fab:R_1206 (layer F.Cu) (tedit 60020482) (tstamp 6091908F)
    (at 157.1 101 90)
    (descr "Resistor SMD 1206, hand soldering")
    (tags "resistor 1206")
    (path /6092320A)
    (attr smd)
    (fp_text reference R2 (at 0 -1.85 90) (layer F.SilkS)
      (effects (font (size 1 1) (thickness 0.15)))
    )
    (fp_text value 1K (at 0 1.9 90) (layer F.Fab)
      (effects (font (size 1 1) (thickness 0.15)))
    )
    (fp_text user %R (at 0 0 90) (layer F.Fab)
      (effects (font (size 0.7 0.7) (thickness 0.105)))
    )
    (fp_line (start -1.6 0.8) (end -1.6 -0.8) (layer F.Fab) (width 0.1))
    (fp_line (start 1.6 0.8) (end -1.6 0.8) (layer F.Fab) (width 0.1))
    (fp_line (start 1.6 -0.8) (end 1.6 0.8) (layer F.Fab) (width 0.1))
    (fp_line (start -1.6 -0.8) (end 1.6 -0.8) (layer F.Fab) (width 0.1))
    (fp_line (start 1 1.07) (end -1 1.07) (layer F.SilkS) (width 0.12))
    (fp_line (start -1 -1.07) (end 1 -1.07) (layer F.SilkS) (width 0.12))
    (fp_line (start -3.25 -1.11) (end 3.25 -1.11) (layer F.CrtYd) (width 0.05))
    (fp_line (start -3.25 -1.11) (end -3.25 1.1) (layer F.CrtYd) (width 0.05))
    (fp_line (start 3.25 1.1) (end 3.25 -1.11) (layer F.CrtYd) (width 0.05))
    (fp_line (start 3.25 1.1) (end -3.25 1.1) (layer F.CrtYd) (width 0.05))
    (pad 1 smd rect (at -2 0 90) (size 2 1.7) (layers F.Cu F.Paste F.Mask)
      (net 11 "Net-(C1-Pad1)"))
    (pad 2 smd rect (at 2 0 90) (size 2 1.7) (layers F.Cu F.Paste F.Mask)
      (net 13 "Net-(C2-Pad2)"))
    (model ${FAB}/fab.3dshapes/R_1206.step
      (at (xyz 0 0 0))
      (scale (xyz 1 1 1))
      (rotate (xyz 0 0 0))
    )
  )

  (module fab:R_1206 (layer F.Cu) (tedit 60020482) (tstamp 6091907E)
    (at 153.7 104.4 270)
    (descr "Resistor SMD 1206, hand soldering")
    (tags "resistor 1206")
    (path /609C7E03)
    (attr smd)
    (fp_text reference R1 (at 0 -1.85 90) (layer F.SilkS)
      (effects (font (size 1 1) (thickness 0.15)))
    )
    (fp_text value 1K (at 0 1.9 90) (layer F.Fab)
      (effects (font (size 1 1) (thickness 0.15)))
    )
    (fp_text user %R (at 0 0 90) (layer F.Fab)
      (effects (font (size 0.7 0.7) (thickness 0.105)))
    )
    (fp_line (start -1.6 0.8) (end -1.6 -0.8) (layer F.Fab) (width 0.1))
    (fp_line (start 1.6 0.8) (end -1.6 0.8) (layer F.Fab) (width 0.1))
    (fp_line (start 1.6 -0.8) (end 1.6 0.8) (layer F.Fab) (width 0.1))
    (fp_line (start -1.6 -0.8) (end 1.6 -0.8) (layer F.Fab) (width 0.1))
    (fp_line (start 1 1.07) (end -1 1.07) (layer F.SilkS) (width 0.12))
    (fp_line (start -1 -1.07) (end 1 -1.07) (layer F.SilkS) (width 0.12))
    (fp_line (start -3.25 -1.11) (end 3.25 -1.11) (layer F.CrtYd) (width 0.05))
    (fp_line (start -3.25 -1.11) (end -3.25 1.1) (layer F.CrtYd) (width 0.05))
    (fp_line (start 3.25 1.1) (end 3.25 -1.11) (layer F.CrtYd) (width 0.05))
    (fp_line (start 3.25 1.1) (end -3.25 1.1) (layer F.CrtYd) (width 0.05))
    (pad 1 smd rect (at -2 0 270) (size 2 1.7) (layers F.Cu F.Paste F.Mask)
      (net 2 +5V))
    (pad 2 smd rect (at 2 0 270) (size 2 1.7) (layers F.Cu F.Paste F.Mask)
      (net 11 "Net-(C1-Pad1)"))
    (model ${FAB}/fab.3dshapes/R_1206.step
      (at (xyz 0 0 0))
      (scale (xyz 1 1 1))
      (rotate (xyz 0 0 0))
    )
  )

  (module fab:C_1206 (layer F.Cu) (tedit 6002C54C) (tstamp 60918F7B)
    (at 131.7 99.4)
    (descr "Capacitor SMD 1206, hand soldering")
    (tags "capacitor 1206")
    (path /60973124)
    (attr smd)
    (fp_text reference C5 (at 0 -1.85) (layer F.SilkS)
      (effects (font (size 1 1) (thickness 0.15)))
    )
    (fp_text value 100pF (at 0 1.9) (layer F.Fab)
      (effects (font (size 1 1) (thickness 0.15)))
    )
    (fp_text user %R (at 0 0) (layer F.Fab)
      (effects (font (size 0.7 0.7) (thickness 0.105)))
    )
    (fp_line (start -1.6 0.8) (end -1.6 -0.8) (layer F.Fab) (width 0.1))
    (fp_line (start 1.6 0.8) (end -1.6 0.8) (layer F.Fab) (width 0.1))
    (fp_line (start 1.6 -0.8) (end 1.6 0.8) (layer F.Fab) (width 0.1))
    (fp_line (start -1.6 -0.8) (end 1.6 -0.8) (layer F.Fab) (width 0.1))
    (fp_line (start 1 1.07) (end -1 1.07) (layer F.SilkS) (width 0.12))
    (fp_line (start -1 -1.07) (end 1 -1.07) (layer F.SilkS) (width 0.12))
    (fp_line (start -3.25 -1.11) (end 3.25 -1.11) (layer F.CrtYd) (width 0.05))
    (fp_line (start -3.25 -1.11) (end -3.25 1.1) (layer F.CrtYd) (width 0.05))
    (fp_line (start 3.25 1.1) (end 3.25 -1.11) (layer F.CrtYd) (width 0.05))
    (fp_line (start 3.25 1.1) (end -3.25 1.1) (layer F.CrtYd) (width 0.05))
    (pad 1 smd rect (at -2 0) (size 2 1.7) (layers F.Cu F.Paste F.Mask)
      (net 15 /AUDIO))
    (pad 2 smd rect (at 2 0) (size 2 1.7) (layers F.Cu F.Paste F.Mask)
      (net 16 "Net-(C5-Pad2)"))
    (model ${FAB}/fab.3dshapes/C_1206.step
      (at (xyz 0 0 0))
      (scale (xyz 1 1 1))
      (rotate (xyz 0 0 0))
    )
  )

  (module fab:C_1206 (layer F.Cu) (tedit 6002C54C) (tstamp 60918F6A)
    (at 139.4 105 180)
    (descr "Capacitor SMD 1206, hand soldering")
    (tags "capacitor 1206")
    (path /60989E18)
    (attr smd)
    (fp_text reference C4 (at 0 -1.85) (layer F.SilkS)
      (effects (font (size 1 1) (thickness 0.15)))
    )
    (fp_text value 1uF (at 0 1.9) (layer F.Fab)
      (effects (font (size 1 1) (thickness 0.15)))
    )
    (fp_text user %R (at 0 0) (layer F.Fab)
      (effects (font (size 0.7 0.7) (thickness 0.105)))
    )
    (fp_line (start -1.6 0.8) (end -1.6 -0.8) (layer F.Fab) (width 0.1))
    (fp_line (start 1.6 0.8) (end -1.6 0.8) (layer F.Fab) (width 0.1))
    (fp_line (start 1.6 -0.8) (end 1.6 0.8) (layer F.Fab) (width 0.1))
    (fp_line (start -1.6 -0.8) (end 1.6 -0.8) (layer F.Fab) (width 0.1))
    (fp_line (start 1 1.07) (end -1 1.07) (layer F.SilkS) (width 0.12))
    (fp_line (start -1 -1.07) (end 1 -1.07) (layer F.SilkS) (width 0.12))
    (fp_line (start -3.25 -1.11) (end 3.25 -1.11) (layer F.CrtYd) (width 0.05))
    (fp_line (start -3.25 -1.11) (end -3.25 1.1) (layer F.CrtYd) (width 0.05))
    (fp_line (start 3.25 1.1) (end 3.25 -1.11) (layer F.CrtYd) (width 0.05))
    (fp_line (start 3.25 1.1) (end -3.25 1.1) (layer F.CrtYd) (width 0.05))
    (pad 1 smd rect (at -2 0 180) (size 2 1.7) (layers F.Cu F.Paste F.Mask)
      (net 14 "Net-(C4-Pad1)"))
    (pad 2 smd rect (at 2 0 180) (size 2 1.7) (layers F.Cu F.Paste F.Mask)
      (net 1 GND))
    (model ${FAB}/fab.3dshapes/C_1206.step
      (at (xyz 0 0 0))
      (scale (xyz 1 1 1))
      (rotate (xyz 0 0 0))
    )
  )

  (module fab:C_1206 (layer F.Cu) (tedit 6002C54C) (tstamp 60918F39)
    (at 150.8 98)
    (descr "Capacitor SMD 1206, hand soldering")
    (tags "capacitor 1206")
    (path /60953EDA)
    (attr smd)
    (fp_text reference C2 (at 0 -1.85) (layer F.SilkS)
      (effects (font (size 1 1) (thickness 0.15)))
    )
    (fp_text value 0.01uF (at 0 1.9) (layer F.Fab)
      (effects (font (size 1 1) (thickness 0.15)))
    )
    (fp_text user %R (at 0 0) (layer F.Fab)
      (effects (font (size 0.7 0.7) (thickness 0.105)))
    )
    (fp_line (start -1.6 0.8) (end -1.6 -0.8) (layer F.Fab) (width 0.1))
    (fp_line (start 1.6 0.8) (end -1.6 0.8) (layer F.Fab) (width 0.1))
    (fp_line (start 1.6 -0.8) (end 1.6 0.8) (layer F.Fab) (width 0.1))
    (fp_line (start -1.6 -0.8) (end 1.6 -0.8) (layer F.Fab) (width 0.1))
    (fp_line (start 1 1.07) (end -1 1.07) (layer F.SilkS) (width 0.12))
    (fp_line (start -1 -1.07) (end 1 -1.07) (layer F.SilkS) (width 0.12))
    (fp_line (start -3.25 -1.11) (end 3.25 -1.11) (layer F.CrtYd) (width 0.05))
    (fp_line (start -3.25 -1.11) (end -3.25 1.1) (layer F.CrtYd) (width 0.05))
    (fp_line (start 3.25 1.1) (end 3.25 -1.11) (layer F.CrtYd) (width 0.05))
    (fp_line (start 3.25 1.1) (end -3.25 1.1) (layer F.CrtYd) (width 0.05))
    (pad 1 smd rect (at -2 0) (size 2 1.7) (layers F.Cu F.Paste F.Mask)
      (net 12 "Net-(C2-Pad1)"))
    (pad 2 smd rect (at 2 0) (size 2 1.7) (layers F.Cu F.Paste F.Mask)
      (net 13 "Net-(C2-Pad2)"))
    (model ${FAB}/fab.3dshapes/C_1206.step
      (at (xyz 0 0 0))
      (scale (xyz 1 1 1))
      (rotate (xyz 0 0 0))
    )
  )

  (module fab:C_1206 (layer F.Cu) (tedit 6002C54C) (tstamp 60918F28)
    (at 159.1 106.6)
    (descr "Capacitor SMD 1206, hand soldering")
    (tags "capacitor 1206")
    (path /609C9E91)
    (attr smd)
    (fp_text reference C1 (at 0 -1.85) (layer F.SilkS)
      (effects (font (size 1 1) (thickness 0.15)))
    )
    (fp_text value 0.1uF (at 0 1.9) (layer F.Fab)
      (effects (font (size 1 1) (thickness 0.15)))
    )
    (fp_text user %R (at 0 0) (layer F.Fab)
      (effects (font (size 0.7 0.7) (thickness 0.105)))
    )
    (fp_line (start -1.6 0.8) (end -1.6 -0.8) (layer F.Fab) (width 0.1))
    (fp_line (start 1.6 0.8) (end -1.6 0.8) (layer F.Fab) (width 0.1))
    (fp_line (start 1.6 -0.8) (end 1.6 0.8) (layer F.Fab) (width 0.1))
    (fp_line (start -1.6 -0.8) (end 1.6 -0.8) (layer F.Fab) (width 0.1))
    (fp_line (start 1 1.07) (end -1 1.07) (layer F.SilkS) (width 0.12))
    (fp_line (start -1 -1.07) (end 1 -1.07) (layer F.SilkS) (width 0.12))
    (fp_line (start -3.25 -1.11) (end 3.25 -1.11) (layer F.CrtYd) (width 0.05))
    (fp_line (start -3.25 -1.11) (end -3.25 1.1) (layer F.CrtYd) (width 0.05))
    (fp_line (start 3.25 1.1) (end 3.25 -1.11) (layer F.CrtYd) (width 0.05))
    (fp_line (start 3.25 1.1) (end -3.25 1.1) (layer F.CrtYd) (width 0.05))
    (pad 1 smd rect (at -2 0) (size 2 1.7) (layers F.Cu F.Paste F.Mask)
      (net 11 "Net-(C1-Pad1)"))
    (pad 2 smd rect (at 2 0) (size 2 1.7) (layers F.Cu F.Paste F.Mask)
      (net 1 GND))
    (model ${FAB}/fab.3dshapes/C_1206.step
      (at (xyz 0 0 0))
      (scale (xyz 1 1 1))
      (rotate (xyz 0 0 0))
    )
  )

  (module fab:R_1206 (layer F.Cu) (tedit 60020482) (tstamp 60903B19)
    (at 154.65 88.95 90)
    (descr "Resistor SMD 1206, hand soldering")
    (tags "resistor 1206")
    (path /60A75231)
    (attr smd)
    (fp_text reference R5 (at 0 -1.85 90) (layer F.SilkS)
      (effects (font (size 1 1) (thickness 0.15)))
    )
    (fp_text value 1K (at 0 1.9 90) (layer F.Fab)
      (effects (font (size 1 1) (thickness 0.15)))
    )
    (fp_line (start 3.25 1.1) (end -3.25 1.1) (layer F.CrtYd) (width 0.05))
    (fp_line (start 3.25 1.1) (end 3.25 -1.11) (layer F.CrtYd) (width 0.05))
    (fp_line (start -3.25 -1.11) (end -3.25 1.1) (layer F.CrtYd) (width 0.05))
    (fp_line (start -3.25 -1.11) (end 3.25 -1.11) (layer F.CrtYd) (width 0.05))
    (fp_line (start -1 -1.07) (end 1 -1.07) (layer F.SilkS) (width 0.12))
    (fp_line (start 1 1.07) (end -1 1.07) (layer F.SilkS) (width 0.12))
    (fp_line (start -1.6 -0.8) (end 1.6 -0.8) (layer F.Fab) (width 0.1))
    (fp_line (start 1.6 -0.8) (end 1.6 0.8) (layer F.Fab) (width 0.1))
    (fp_line (start 1.6 0.8) (end -1.6 0.8) (layer F.Fab) (width 0.1))
    (fp_line (start -1.6 0.8) (end -1.6 -0.8) (layer F.Fab) (width 0.1))
    (fp_text user %R (at 0 0 90) (layer F.Fab)
      (effects (font (size 0.7 0.7) (thickness 0.105)))
    )
    (pad 1 smd rect (at -2 0 90) (size 2 1.7) (layers F.Cu F.Paste F.Mask)
      (net 2 +5V))
    (pad 2 smd rect (at 2 0 90) (size 2 1.7) (layers F.Cu F.Paste F.Mask)
      (net 10 "Net-(D1-Pad2)"))
    (model ${FAB}/fab.3dshapes/R_1206.step
      (at (xyz 0 0 0))
      (scale (xyz 1 1 1))
      (rotate (xyz 0 0 0))
    )
  )

  (module fab:LED_1206 (layer F.Cu) (tedit 595FC724) (tstamp 609039AE)
    (at 157.9 88.95 90)
    (descr "LED SMD 1206, hand soldering")
    (tags "LED 1206")
    (path /60A74CDA)
    (attr smd)
    (fp_text reference D1 (at 0 -1.85 90) (layer F.SilkS)
      (effects (font (size 1 1) (thickness 0.15)))
    )
    (fp_text value LED_PWR (at 0 1.9 90) (layer F.Fab)
      (effects (font (size 1 1) (thickness 0.15)))
    )
    (fp_line (start -3.1 -0.95) (end -3.1 0.95) (layer F.SilkS) (width 0.12))
    (fp_line (start -0.4 0) (end 0.2 -0.4) (layer F.Fab) (width 0.1))
    (fp_line (start 0.2 -0.4) (end 0.2 0.4) (layer F.Fab) (width 0.1))
    (fp_line (start 0.2 0.4) (end -0.4 0) (layer F.Fab) (width 0.1))
    (fp_line (start -0.45 -0.4) (end -0.45 0.4) (layer F.Fab) (width 0.1))
    (fp_line (start -1.6 0.8) (end -1.6 -0.8) (layer F.Fab) (width 0.1))
    (fp_line (start 1.6 0.8) (end -1.6 0.8) (layer F.Fab) (width 0.1))
    (fp_line (start 1.6 -0.8) (end 1.6 0.8) (layer F.Fab) (width 0.1))
    (fp_line (start -1.6 -0.8) (end 1.6 -0.8) (layer F.Fab) (width 0.1))
    (fp_line (start -3.1 0.95) (end 1.6 0.95) (layer F.SilkS) (width 0.12))
    (fp_line (start -3.1 -0.95) (end 1.6 -0.95) (layer F.SilkS) (width 0.12))
    (fp_line (start -3.25 -1.11) (end 3.25 -1.11) (layer F.CrtYd) (width 0.05))
    (fp_line (start -3.25 -1.11) (end -3.25 1.1) (layer F.CrtYd) (width 0.05))
    (fp_line (start 3.25 1.1) (end 3.25 -1.11) (layer F.CrtYd) (width 0.05))
    (fp_line (start 3.25 1.1) (end -3.25 1.1) (layer F.CrtYd) (width 0.05))
    (pad 1 smd rect (at -2 0 90) (size 2 1.7) (layers F.Cu F.Paste F.Mask)
      (net 1 GND))
    (pad 2 smd rect (at 2 0 90) (size 2 1.7) (layers F.Cu F.Paste F.Mask)
      (net 10 "Net-(D1-Pad2)"))
    (model ${KISYS3DMOD}/LEDs.3dshapes/LED_1206.wrl
      (at (xyz 0 0 0))
      (scale (xyz 1 1 1))
      (rotate (xyz 0 0 180))
    )
  )

  (module fab:SOIC-8_3.9x4.9mm_P1.27mm (layer F.Cu) (tedit 608D94DE) (tstamp 60901CEE)
    (at 138.7 90.635)
    (tags "SOIC 1.27")
    (path /6091F4C9)
    (attr smd)
    (fp_text reference U3 (at 0 -3.5) (layer F.SilkS)
      (effects (font (size 1 1) (thickness 0.15)))
    )
    (fp_text value Microcontroller_ATtiny412_SSFR (at 0 3.683) (layer F.Fab)
      (effects (font (size 1 1) (thickness 0.15)))
    )
    (fp_line (start -4 2.75) (end -4 -2.8) (layer B.CrtYd) (width 0.05))
    (fp_line (start 4 2.75) (end -4 2.75) (layer B.CrtYd) (width 0.05))
    (fp_line (start 4 -2.8) (end 4 2.75) (layer B.CrtYd) (width 0.05))
    (fp_line (start -4 -2.8) (end 4 -2.8) (layer B.CrtYd) (width 0.05))
    (fp_line (start -1.95 -2.45) (end -1.95 2.45) (layer F.Fab) (width 0.1))
    (fp_line (start 1.95 -2.45) (end 1.95 2.45) (layer F.Fab) (width 0.1))
    (fp_line (start -1.95 2.45) (end 1.95 2.45) (layer F.Fab) (width 0.1))
    (fp_line (start -1.95 -2.45) (end 1.95 -2.45) (layer F.Fab) (width 0.1))
    (fp_line (start -2.075 2.575) (end 2.075 2.575) (layer F.SilkS) (width 0.15))
    (fp_line (start -3.69 -2.575) (end 2.075 -2.575) (layer F.SilkS) (width 0.15))
    (fp_circle (center -2.87 -3.23) (end -2.67 -3.23) (layer F.SilkS) (width 0.12))
    (fp_text user %R (at 0 0) (layer F.Fab)
      (effects (font (size 0.9 0.9) (thickness 0.135)))
    )
    (pad 1 smd rect (at -2.8 -1.905) (size 2 0.8) (layers F.Cu F.Paste F.Mask)
      (net 2 +5V))
    (pad 2 smd rect (at -2.8 -0.635) (size 2 0.8) (layers F.Cu F.Paste F.Mask)
      (net 4 /RX))
    (pad 3 smd rect (at -2.8 0.635) (size 2 0.8) (layers F.Cu F.Paste F.Mask)
      (net 5 /TX))
    (pad 4 smd rect (at -2.8 1.905) (size 2 0.8) (layers F.Cu F.Paste F.Mask)
      (net 15 /AUDIO))
    (pad 5 smd rect (at 2.8 1.905) (size 2 0.8) (layers F.Cu F.Paste F.Mask)
      (net 8 "Net-(U3-Pad5)"))
    (pad 6 smd rect (at 2.8 0.635) (size 2 0.8) (layers F.Cu F.Paste F.Mask)
      (net 7 /UPDI))
    (pad 7 smd rect (at 2.8 -0.635) (size 2 0.8) (layers F.Cu F.Paste F.Mask)
      (net 9 "Net-(U3-Pad7)"))
    (pad 8 smd rect (at 2.8 -1.905) (size 2 0.8) (layers F.Cu F.Paste F.Mask)
      (net 1 GND))
    (model ${FAB}/fab.3dshapes/SOIC-8_3.9x4.9mm_P1.27mm.step
      (at (xyz 0 0 0))
      (scale (xyz 1 1 1))
      (rotate (xyz 0 0 0))
    )
  )

  (module fab:PinHeader_UPDI_01x02_P2.54mm_Horizontal_SMD (layer F.Cu) (tedit 60851B04) (tstamp 6090720F)
    (at 147.36 90.9 90)
    (descr https://s3.amazonaws.com/catalogspreads-pdf/PAGE112-113%20.100%20MALE%20HDR.pdf)
    (tags "horizontal pin header SMD 2.54mm")
    (path /6091FC3D)
    (attr smd)
    (fp_text reference J2 (at -1.524 -2.54 270) (layer F.SilkS)
      (effects (font (size 1 1) (thickness 0.15)) (justify left))
    )
    (fp_text value Conn_PinHeader_UPDI_1x02_P2.54mm_Horizontal_SMD (at 2.1 5.4 90) (layer F.Fab)
      (effects (font (size 1 1) (thickness 0.15)))
    )
    (fp_line (start -0.635 2.286) (end -0.635 2.794) (layer F.Fab) (width 0.1))
    (fp_line (start -0.635 -0.254) (end -0.635 0.254) (layer F.Fab) (width 0.1))
    (fp_line (start 3.81 2.794) (end 1.27 2.794) (layer F.SilkS) (width 0.12))
    (fp_line (start 3.81 2.286) (end 1.27 2.286) (layer F.SilkS) (width 0.12))
    (fp_line (start 3.81 0.254) (end 1.27 0.254) (layer F.SilkS) (width 0.12))
    (fp_line (start 3.81 -0.254) (end 1.27 -0.254) (layer F.SilkS) (width 0.12))
    (fp_line (start 3.81 3.81) (end 3.81 -1.27) (layer F.SilkS) (width 0.12))
    (fp_line (start 6.35 3.81) (end 3.81 3.81) (layer F.SilkS) (width 0.12))
    (fp_line (start 6.35 -1.27) (end 6.35 3.81) (layer F.SilkS) (width 0.12))
    (fp_line (start 3.81 -1.27) (end 6.35 -1.27) (layer F.SilkS) (width 0.12))
    (fp_line (start 3.81 2.54) (end -0.635 2.54) (layer F.Fab) (width 0.1))
    (fp_line (start 3.81 0) (end -0.635 0) (layer F.Fab) (width 0.1))
    (fp_line (start 6.34 -1.27) (end 6.35 3.81) (layer F.Fab) (width 0.1))
    (fp_line (start 3.8 3.81) (end 6.35 3.81) (layer F.Fab) (width 0.1))
    (fp_line (start 3.8 -1.27) (end 6.34 -1.27) (layer F.Fab) (width 0.1))
    (fp_line (start 3.81 3.81) (end 3.8 -1.27) (layer F.Fab) (width 0.1))
    (fp_line (start -1.27 -1.27) (end 0 -1.27) (layer F.SilkS) (width 0.12))
    (fp_line (start -1.8 -1.8) (end -1.8 4.3) (layer F.CrtYd) (width 0.05))
    (fp_line (start -1.8 4.3) (end 6.4 4.3) (layer F.CrtYd) (width 0.05))
    (fp_line (start 6.4 4.3) (end 6.4 -1.8) (layer F.CrtYd) (width 0.05))
    (fp_line (start 6.4 -1.8) (end -1.8 -1.8) (layer F.CrtYd) (width 0.05))
    (fp_text user GND (at 1.5 4.54 90) (layer F.SilkS)
      (effects (font (size 1 1) (thickness 0.15)) (justify right))
    )
    (fp_text user UPDI (at 1.5 -1.96 90) (layer F.SilkS)
      (effects (font (size 1 1) (thickness 0.15)) (justify right))
    )
    (fp_text user %R (at 2.54 1.27) (layer F.Fab)
      (effects (font (size 1 1) (thickness 0.15)))
    )
    (pad 2 smd rect (at 0 2.54 90) (size 2.5 1.7) (layers F.Cu F.Paste F.Mask)
      (net 1 GND))
    (pad 1 smd rect (at 0 0 90) (size 2.5 1.7) (layers F.Cu F.Paste F.Mask)
      (net 7 /UPDI))
    (model ${FAB}/fab.3dshapes/Header_SMD_01x02_P2.54mm_Horizontal_Male.step
      (at (xyz 0 0 0))
      (scale (xyz 1 1 1))
      (rotate (xyz 0 0 0))
    )
  )

  (module fab:PinHeader_FTDI_01x06_P2.54mm_Horizontal_SMD (layer F.Cu) (tedit 60851AE4) (tstamp 60901C1F)
    (at 124.4 102.2 180)
    (descr https://s3.amazonaws.com/catalogspreads-pdf/PAGE112-113%20.100%20MALE%20HDR.pdf)
    (tags "horizontal pin header SMD 2.54mm")
    (path /60920243)
    (attr smd)
    (fp_text reference J1 (at -1.524 -2.54 180) (layer F.SilkS)
      (effects (font (size 1 1) (thickness 0.15)) (justify right))
    )
    (fp_text value Conn_PinHeader_FTDI_1x06_P2.54mm_Horizontal_SMD (at 2.286 15.621) (layer F.Fab)
      (effects (font (size 1 1) (thickness 0.15)))
    )
    (fp_line (start -0.635 12.446) (end -0.635 12.954) (layer F.Fab) (width 0.1))
    (fp_line (start -0.635 9.906) (end -0.635 10.414) (layer F.Fab) (width 0.1))
    (fp_line (start -0.635 7.366) (end -0.635 7.874) (layer F.Fab) (width 0.1))
    (fp_line (start -0.635 4.826) (end -0.635 5.334) (layer F.Fab) (width 0.1))
    (fp_line (start -0.635 2.286) (end -0.635 2.794) (layer F.Fab) (width 0.1))
    (fp_line (start -0.635 -0.254) (end -0.635 0.254) (layer F.Fab) (width 0.1))
    (fp_line (start 3.81 12.954) (end 1.27 12.954) (layer F.SilkS) (width 0.12))
    (fp_line (start 3.81 12.446) (end 1.27 12.446) (layer F.SilkS) (width 0.12))
    (fp_line (start 3.81 10.414) (end 1.27 10.414) (layer F.SilkS) (width 0.12))
    (fp_line (start 3.81 9.906) (end 1.27 9.906) (layer F.SilkS) (width 0.12))
    (fp_line (start 3.81 7.874) (end 1.27 7.874) (layer F.SilkS) (width 0.12))
    (fp_line (start 3.81 7.366) (end 1.27 7.366) (layer F.SilkS) (width 0.12))
    (fp_line (start 3.81 5.334) (end 1.27 5.334) (layer F.SilkS) (width 0.12))
    (fp_line (start 3.81 4.826) (end 1.27 4.826) (layer F.SilkS) (width 0.12))
    (fp_line (start 3.81 2.794) (end 1.27 2.794) (layer F.SilkS) (width 0.12))
    (fp_line (start 3.81 2.286) (end 1.27 2.286) (layer F.SilkS) (width 0.12))
    (fp_line (start 3.81 0.254) (end 1.27 0.254) (layer F.SilkS) (width 0.12))
    (fp_line (start 3.81 -0.254) (end 1.27 -0.254) (layer F.SilkS) (width 0.12))
    (fp_line (start 3.81 13.97) (end 3.81 -1.27) (layer F.SilkS) (width 0.12))
    (fp_line (start 6.35 13.97) (end 3.81 13.97) (layer F.SilkS) (width 0.12))
    (fp_line (start 6.35 -1.27) (end 6.35 13.97) (layer F.SilkS) (width 0.12))
    (fp_line (start 3.81 -1.27) (end 6.35 -1.27) (layer F.SilkS) (width 0.12))
    (fp_line (start 3.81 12.7) (end -0.635 12.7) (layer F.Fab) (width 0.1))
    (fp_line (start 3.81 10.16) (end -0.635 10.16) (layer F.Fab) (width 0.1))
    (fp_line (start 3.81 7.62) (end -0.635 7.62) (layer F.Fab) (width 0.1))
    (fp_line (start 3.81 5.08) (end -0.635 5.08) (layer F.Fab) (width 0.1))
    (fp_line (start 3.81 2.54) (end -0.635 2.54) (layer F.Fab) (width 0.1))
    (fp_line (start 3.81 0) (end -0.635 0) (layer F.Fab) (width 0.1))
    (fp_line (start 6.34 -1.27) (end 6.35 13.97) (layer F.Fab) (width 0.1))
    (fp_line (start 3.8 13.97) (end 6.35 13.97) (layer F.Fab) (width 0.1))
    (fp_line (start 3.8 -1.27) (end 6.34 -1.27) (layer F.Fab) (width 0.1))
    (fp_line (start 3.8 13.97) (end 3.8 -1.27) (layer F.Fab) (width 0.1))
    (fp_line (start -1.27 -1.27) (end 0 -1.27) (layer F.SilkS) (width 0.12))
    (fp_line (start -1.8 -1.8) (end -1.8 14.5) (layer F.CrtYd) (width 0.05))
    (fp_line (start -1.8 14.5) (end 6.4 14.5) (layer F.CrtYd) (width 0.05))
    (fp_line (start 6.4 14.5) (end 6.4 -1.8) (layer F.CrtYd) (width 0.05))
    (fp_line (start 6.4 -1.8) (end -1.8 -1.8) (layer F.CrtYd) (width 0.05))
    (fp_text user RTS (at -1.905 12.7) (layer F.SilkS)
      (effects (font (size 1 1) (thickness 0.15)) (justify left))
    )
    (fp_text user RX (at -1.905 10.16) (layer F.SilkS)
      (effects (font (size 1 1) (thickness 0.15)) (justify left))
    )
    (fp_text user TX (at -1.905 7.62) (layer F.SilkS)
      (effects (font (size 1 1) (thickness 0.15)) (justify left))
    )
    (fp_text user VCC (at -1.905 5.08) (layer F.SilkS)
      (effects (font (size 1 1) (thickness 0.15)) (justify left))
    )
    (fp_text user CTS (at -1.905 2.54) (layer F.SilkS)
      (effects (font (size 1 1) (thickness 0.15)) (justify left))
    )
    (fp_text user GND (at -1.905 0) (layer F.SilkS)
      (effects (font (size 1 1) (thickness 0.15)) (justify left))
    )
    (fp_text user %R (at 2.6 6.1 90) (layer F.Fab)
      (effects (font (size 1 1) (thickness 0.15)))
    )
    (pad 6 smd rect (at 0 12.7 180) (size 2.5 1.7) (layers F.Cu F.Paste F.Mask)
      (net 3 "Net-(J1-Pad6)"))
    (pad 5 smd rect (at 0 10.16 180) (size 2.5 1.7) (layers F.Cu F.Paste F.Mask)
      (net 4 /RX))
    (pad 4 smd rect (at 0 7.62 180) (size 2.5 1.7) (layers F.Cu F.Paste F.Mask)
      (net 5 /TX))
    (pad 3 smd rect (at 0 5.08 180) (size 2.5 1.7) (layers F.Cu F.Paste F.Mask)
      (net 2 +5V))
    (pad 2 smd rect (at 0 2.54 180) (size 2.5 1.7) (layers F.Cu F.Paste F.Mask)
      (net 6 "Net-(J1-Pad2)"))
    (pad 1 smd rect (at 0 0 180) (size 2.5 1.7) (layers F.Cu F.Paste F.Mask)
      (net 1 GND))
    (model ${FAB}/fab.3dshapes/Header_SMD_01x06_P2.54mm_Horizontal_Male.step
      (at (xyz 0 0 0))
      (scale (xyz 1 1 1))
      (rotate (xyz 0 0 0))
    )
  )

  (module fab:C_1206 (layer F.Cu) (tedit 6002C54C) (tstamp 60901BE9)
    (at 139 86.25 180)
    (descr "Capacitor SMD 1206, hand soldering")
    (tags "capacitor 1206")
    (path /6095A919)
    (attr smd)
    (fp_text reference C3 (at 0 -1.85) (layer F.SilkS)
      (effects (font (size 1 1) (thickness 0.15)))
    )
    (fp_text value 1uF (at 0 1.9) (layer F.Fab)
      (effects (font (size 1 1) (thickness 0.15)))
    )
    (fp_line (start 3.25 1.1) (end -3.25 1.1) (layer F.CrtYd) (width 0.05))
    (fp_line (start 3.25 1.1) (end 3.25 -1.11) (layer F.CrtYd) (width 0.05))
    (fp_line (start -3.25 -1.11) (end -3.25 1.1) (layer F.CrtYd) (width 0.05))
    (fp_line (start -3.25 -1.11) (end 3.25 -1.11) (layer F.CrtYd) (width 0.05))
    (fp_line (start -1 -1.07) (end 1 -1.07) (layer F.SilkS) (width 0.12))
    (fp_line (start 1 1.07) (end -1 1.07) (layer F.SilkS) (width 0.12))
    (fp_line (start -1.6 -0.8) (end 1.6 -0.8) (layer F.Fab) (width 0.1))
    (fp_line (start 1.6 -0.8) (end 1.6 0.8) (layer F.Fab) (width 0.1))
    (fp_line (start 1.6 0.8) (end -1.6 0.8) (layer F.Fab) (width 0.1))
    (fp_line (start -1.6 0.8) (end -1.6 -0.8) (layer F.Fab) (width 0.1))
    (fp_text user %R (at 0 0) (layer F.Fab)
      (effects (font (size 0.7 0.7) (thickness 0.105)))
    )
    (pad 1 smd rect (at -2 0 180) (size 2 1.7) (layers F.Cu F.Paste F.Mask)
      (net 1 GND))
    (pad 2 smd rect (at 2 0 180) (size 2 1.7) (layers F.Cu F.Paste F.Mask)
      (net 2 +5V))
    (model ${FAB}/fab.3dshapes/C_1206.step
      (at (xyz 0 0 0))
      (scale (xyz 1 1 1))
      (rotate (xyz 0 0 0))
    )
  )

  (gr_text "FAB\nMIC" (at 163.7 89.7) (layer F.Cu)
    (effects (font (size 1.5 1.5) (thickness 0.3)))
  )
  (gr_text + (at 164.9 95.4) (layer F.Cu)
    (effects (font (size 1.5 1.5) (thickness 0.3)))
  )
  (gr_line (start 118 109.5) (end 118 84.5) (layer Edge.Cuts) (width 0.05) (tstamp 609088E4))
  (gr_line (start 168 109.5) (end 118 109.5) (layer Edge.Cuts) (width 0.05))
  (gr_line (start 168 84.5) (end 168 109.5) (layer Edge.Cuts) (width 0.05))
  (gr_line (start 118 84.5) (end 168 84.5) (layer Edge.Cuts) (width 0.05))
  (dimension 25 (width 0.15) (layer Dwgs.User)
    (gr_text "25.000 mm" (at 109.7 97 270) (layer Dwgs.User)
      (effects (font (size 1 1) (thickness 0.15)))
    )
    (feature1 (pts (xy 118 109.5) (xy 110.413579 109.5)))
    (feature2 (pts (xy 118 84.5) (xy 110.413579 84.5)))
    (crossbar (pts (xy 111 84.5) (xy 111 109.5)))
    (arrow1a (pts (xy 111 109.5) (xy 110.413579 108.373496)))
    (arrow1b (pts (xy 111 109.5) (xy 111.586421 108.373496)))
    (arrow2a (pts (xy 111 84.5) (xy 110.413579 85.626504)))
    (arrow2b (pts (xy 111 84.5) (xy 111.586421 85.626504)))
  )
  (dimension 50 (width 0.15) (layer Dwgs.User)
    (gr_text "50.000 mm" (at 143 77.2) (layer Dwgs.User)
      (effects (font (size 1 1) (thickness 0.15)))
    )
    (feature1 (pts (xy 168 84.5) (xy 168 77.913579)))
    (feature2 (pts (xy 118 84.5) (xy 118 77.913579)))
    (crossbar (pts (xy 118 78.5) (xy 168 78.5)))
    (arrow1a (pts (xy 168 78.5) (xy 166.873496 79.086421)))
    (arrow1b (pts (xy 168 78.5) (xy 166.873496 77.913579)))
    (arrow2a (pts (xy 118 78.5) (xy 119.126504 79.086421)))
    (arrow2b (pts (xy 118 78.5) (xy 119.126504 77.913579)))
  )

  (segment (start 141 88.23) (end 141.5 88.73) (width 0.6) (layer F.Cu) (net 1))
  (segment (start 141 86.25) (end 141 88.23) (width 0.6) (layer F.Cu) (net 1))
  (via (at 144.25 86.25) (size 1.6) (drill 0.8) (layers F.Cu B.Cu) (net 1))
  (segment (start 141 86.25) (end 144.25 86.25) (width 0.6) (layer F.Cu) (net 1))
  (segment (start 125 99.87) (end 125 100) (width 0.6) (layer F.Cu) (net 6))
  (segment (start 161.54 101.8) (end 161.6 101.74) (width 0.6) (layer F.Cu) (net 1))
  (segment (start 161.1 102.24) (end 161.6 101.74) (width 0.6) (layer F.Cu) (net 1))
  (segment (start 161.1 106.6) (end 161.1 104.2) (width 0.6) (layer F.Cu) (net 1))
  (segment (start 144.3 105.4) (end 144.4 105.4) (width 0.6) (layer F.Cu) (net 1))
  (segment (start 144.4 105.4) (end 148.8 105.4) (width 0.6) (layer F.Cu) (net 1) (tstamp 6091B6B4))
  (via (at 144.4 105.4) (size 1.6) (drill 0.8) (layers F.Cu B.Cu) (net 1))
  (segment (start 143.249999 106.550001) (end 144.4 105.4) (width 0.6) (layer F.Cu) (net 1))
  (segment (start 138.950001 106.550001) (end 143.249999 106.550001) (width 0.6) (layer F.Cu) (net 1))
  (segment (start 137.4 105) (end 138.950001 106.550001) (width 0.6) (layer F.Cu) (net 1))
  (segment (start 161.1 104.2) (end 161.1 102.24) (width 0.6) (layer F.Cu) (net 1) (tstamp 6091BB7D))
  (via (at 161.1 104.2) (size 1.6) (drill 0.8) (layers F.Cu B.Cu) (net 1))
  (segment (start 126.7 108.2) (end 125 106.5) (width 0.6) (layer F.Cu) (net 1))
  (via (at 125 106.5) (size 1.6) (drill 0.8) (layers F.Cu B.Cu) (net 1))
  (segment (start 124.4 105.9) (end 125 106.5) (width 0.6) (layer F.Cu) (net 1))
  (segment (start 124.4 102.2) (end 124.4 105.9) (width 0.6) (layer F.Cu) (net 1))
  (segment (start 149.9 89.05) (end 149.9 90.9) (width 0.6) (layer F.Cu) (net 1))
  (segment (start 147.1 86.25) (end 149.9 89.05) (width 0.6) (layer F.Cu) (net 1))
  (segment (start 144.25 86.25) (end 147.1 86.25) (width 0.6) (layer F.Cu) (net 1))
  (via (at 157.9 94.4) (size 1.6) (drill 0.8) (layers F.Cu B.Cu) (net 1))
  (segment (start 157.9 90.95) (end 157.9 94.4) (width 0.6) (layer F.Cu) (net 1))
  (segment (start 126.750001 108.250001) (end 126.7 108.2) (width 0.6) (layer F.Cu) (net 1))
  (segment (start 131.75 108.15) (end 131.649999 108.250001) (width 0.6) (layer F.Cu) (net 1))
  (segment (start 131.649999 108.250001) (end 126.750001 108.250001) (width 0.6) (layer F.Cu) (net 1))
  (segment (start 131.75 106.55) (end 131.75 108.15) (width 0.6) (layer F.Cu) (net 1))
  (segment (start 152.999999 103.100001) (end 153.7 102.4) (width 0.6) (layer F.Cu) (net 2))
  (segment (start 146.100001 103.100001) (end 152.999999 103.100001) (width 0.6) (layer F.Cu) (net 2))
  (segment (start 145.2 102.2) (end 146.100001 103.100001) (width 0.6) (layer F.Cu) (net 2))
  (segment (start 124.5 94.79) (end 123.679998 94.79) (width 0.6) (layer F.Cu) (net 5))
  (segment (start 135.9 87.35) (end 137 86.25) (width 0.6) (layer F.Cu) (net 2))
  (segment (start 135.9 88.73) (end 135.9 87.35) (width 0.6) (layer F.Cu) (net 2))
  (segment (start 132.789998 94.5) (end 131.580001 95.709997) (width 0.6) (layer F.Cu) (net 2))
  (segment (start 138.6 94.5) (end 132.789998 94.5) (width 0.6) (layer F.Cu) (net 2))
  (segment (start 138.4 94.3) (end 138.6 94.5) (width 0.6) (layer F.Cu) (net 2))
  (segment (start 138.4 89.5) (end 138.4 94.3) (width 0.6) (layer F.Cu) (net 2))
  (segment (start 137.63 88.73) (end 138.4 89.5) (width 0.6) (layer F.Cu) (net 2))
  (segment (start 135.9 88.73) (end 137.63 88.73) (width 0.6) (layer F.Cu) (net 2))
  (segment (start 123.55 86.25) (end 137 86.25) (width 0.6) (layer F.Cu) (net 2))
  (segment (start 121.8 96.37) (end 121.8 88) (width 0.6) (layer F.Cu) (net 2))
  (segment (start 121.8 88) (end 123.55 86.25) (width 0.6) (layer F.Cu) (net 2))
  (segment (start 122.55 97.12) (end 121.8 96.37) (width 0.6) (layer F.Cu) (net 2))
  (segment (start 124.4 97.12) (end 122.55 97.12) (width 0.6) (layer F.Cu) (net 2))
  (segment (start 150.500001 99.200001) (end 153.7 102.4) (width 0.6) (layer F.Cu) (net 2))
  (segment (start 150.500001 94.500001) (end 150.500001 99.200001) (width 0.6) (layer F.Cu) (net 2))
  (segment (start 138.6 94.5) (end 150.500001 94.500001) (width 0.6) (layer F.Cu) (net 2))
  (segment (start 150.500001 94.500001) (end 152.899999 94.500001) (width 0.6) (layer F.Cu) (net 2))
  (segment (start 154.65 92.75) (end 154.65 90.95) (width 0.6) (layer F.Cu) (net 2))
  (segment (start 152.899999 94.500001) (end 154.65 92.75) (width 0.6) (layer F.Cu) (net 2))
  (segment (start 131.400001 102.949999) (end 130.8 103.55) (width 0.6) (layer F.Cu) (net 2))
  (segment (start 131.400001 96.599999) (end 131.400001 102.949999) (width 0.6) (layer F.Cu) (net 2))
  (segment (start 131.580001 96.419999) (end 131.400001 96.599999) (width 0.6) (layer F.Cu) (net 2))
  (segment (start 131.580001 95.709997) (end 131.580001 96.419999) (width 0.6) (layer F.Cu) (net 2))
  (segment (start 125 89.71) (end 125.29 90) (width 0.4) (layer F.Cu) (net 3))
  (segment (start 124.79 90) (end 124.5 89.71) (width 0.4) (layer F.Cu) (net 3))
  (segment (start 124.4 92.04) (end 127.96 92.04) (width 0.4) (layer F.Cu) (net 4))
  (segment (start 130 90) (end 135.9 90) (width 0.4) (layer F.Cu) (net 4))
  (segment (start 127.96 92.04) (end 130 90) (width 0.4) (layer F.Cu) (net 4))
  (segment (start 130.73 91.27) (end 127.42 94.58) (width 0.4) (layer F.Cu) (net 5))
  (segment (start 127.42 94.58) (end 124.4 94.58) (width 0.4) (layer F.Cu) (net 5))
  (segment (start 135.9 91.27) (end 130.73 91.27) (width 0.4) (layer F.Cu) (net 5))
  (segment (start 146.99 91.27) (end 147.36 90.9) (width 0.4) (layer F.Cu) (net 7))
  (segment (start 141.5 91.27) (end 146.99 91.27) (width 0.4) (layer F.Cu) (net 7))
  (segment (start 154.65 86.95) (end 157.9 86.95) (width 0.4) (layer F.Cu) (net 10))
  (segment (start 157.1 103) (end 157.1 106.6) (width 0.4) (layer F.Cu) (net 11))
  (segment (start 156.9 106.4) (end 157.1 106.6) (width 0.4) (layer F.Cu) (net 11))
  (segment (start 153.7 106.4) (end 156.9 106.4) (width 0.4) (layer F.Cu) (net 11))
  (segment (start 148.8 101.4) (end 148.8 98) (width 0.4) (layer F.Cu) (net 12))
  (segment (start 148.6 98.2) (end 148.8 98) (width 0.4) (layer F.Cu) (net 12))
  (segment (start 145.2 98.2) (end 148.6 98.2) (width 0.4) (layer F.Cu) (net 12))
  (segment (start 144.6 98.8) (end 145.2 98.2) (width 0.4) (layer F.Cu) (net 12))
  (segment (start 139.3 99.3) (end 140.4 98.2) (width 0.4) (layer F.Cu) (net 12))
  (segment (start 139.3 101.6) (end 139.3 99.3) (width 0.4) (layer F.Cu) (net 12))
  (segment (start 140.4 98.2) (end 145.2 98.2) (width 0.4) (layer F.Cu) (net 12))
  (segment (start 138.2 102.7) (end 139.3 101.6) (width 0.4) (layer F.Cu) (net 12))
  (segment (start 135.9 102.7) (end 138.2 102.7) (width 0.4) (layer F.Cu) (net 12))
  (segment (start 134.9 103.7) (end 135.9 102.7) (width 0.4) (layer F.Cu) (net 12))
  (segment (start 134.9 107.5) (end 134.9 103.7) (width 0.4) (layer F.Cu) (net 12))
  (segment (start 134.4 108) (end 134.9 107.5) (width 0.4) (layer F.Cu) (net 12))
  (segment (start 133.2 108) (end 134.4 108) (width 0.4) (layer F.Cu) (net 12))
  (segment (start 132.7 107.5) (end 133.2 108) (width 0.4) (layer F.Cu) (net 12))
  (segment (start 132.7 106.55) (end 132.7 107.5) (width 0.4) (layer F.Cu) (net 12))
  (segment (start 161.4 99) (end 161.6 99.2) (width 0.4) (layer F.Cu) (net 13))
  (segment (start 157.1 99) (end 161.4 99) (width 0.4) (layer F.Cu) (net 13))
  (segment (start 156.1 98) (end 157.1 99) (width 0.4) (layer F.Cu) (net 13))
  (segment (start 152.8 98) (end 156.1 98) (width 0.4) (layer F.Cu) (net 13))
  (segment (start 141.4 100.5) (end 141.4 105) (width 0.4) (layer F.Cu) (net 14))
  (segment (start 129.7 96.7) (end 129.7 99.4) (width 0.4) (layer F.Cu) (net 15))
  (segment (start 129.7 96.7) (end 129.7 94.9) (width 0.4) (layer F.Cu) (net 15))
  (segment (start 132.06 92.54) (end 135.9 92.54) (width 0.4) (layer F.Cu) (net 15))
  (segment (start 129.7 94.9) (end 132.06 92.54) (width 0.4) (layer F.Cu) (net 15))
  (segment (start 129.7 105.45) (end 130.8 106.55) (width 0.4) (layer F.Cu) (net 15))
  (segment (start 129.7 99.4) (end 129.7 105.45) (width 0.4) (layer F.Cu) (net 15))
  (segment (start 132.7 100.4) (end 133.7 99.4) (width 0.4) (layer F.Cu) (net 16))
  (segment (start 132.7 103.7) (end 132.7 100.4) (width 0.4) (layer F.Cu) (net 16))
  (segment (start 133.7 99.4) (end 133.7 96.7) (width 0.4) (layer F.Cu) (net 16))
  (segment (start 136.3 99.4) (end 137.4 100.5) (width 0.4) (layer F.Cu) (net 16))
  (segment (start 133.7 99.4) (end 136.3 99.4) (width 0.4) (layer F.Cu) (net 16))

  (zone (net 1) (net_name GND) (layer B.Cu) (tstamp 6092380B) (hatch edge 0.508)
    (connect_pads (clearance 0.508))
    (min_thickness 0.254)
    (fill yes (arc_segments 32) (thermal_gap 0.508) (thermal_bridge_width 0.508))
    (polygon
      (pts
        (xy 168 109.5) (xy 118 109.5) (xy 118 84.5) (xy 168 84.5)
      )
    )
    (filled_polygon
      (pts
        (xy 167.340001 108.84) (xy 118.66 108.84) (xy 118.66 85.16) (xy 167.34 85.16)
      )
    )
  )
)
